%YAML 1.1
%TAG !u! tag:unity3d.com,2011:
--- !u!74 &7400000
AnimationClip:
  m_ObjectHideFlags: 0
  m_PrefabParentObject: {fileID: 0}
  m_PrefabInternal: {fileID: 0}
  m_Name: Soul_Inactive_Idle
  serializedVersion: 6
  m_Legacy: 0
  m_Compressed: 0
  m_UseHighQualityCurve: 1
  m_RotationCurves: []
  m_CompressedRotationCurves: []
  m_EulerCurves: []
  m_PositionCurves:
  - curve:
      serializedVersion: 2
      m_Curve:
      - time: 0
        value: {x: 0, y: 0, z: 0}
        inSlope: {x: 0.015502959, y: 0.15286803, z: 0}
        outSlope: {x: 0.015502959, y: 0.15286803, z: 0}
        tangentMode: 0
      - time: 1
        value: {x: 0.015502959, y: 0.15286803, z: 0}
        inSlope: {x: -0.01520355, y: 0.002814293, z: 0}
        outSlope: {x: -0.01520355, y: 0.002814293, z: 0}
        tangentMode: 0
      - time: 1.6
        value: {x: -0.012043079, y: 0.08770786, z: 0}
        inSlope: {x: -0.007817834, y: -0.18872741, z: 0}
        outSlope: {x: -0.007817834, y: -0.18872741, z: 0}
        tangentMode: 0
      - time: 2.5333333
        value: {x: 0.016213018, y: -0.0886851, z: 0}
        inSlope: {x: -0.0023293467, y: -0.11354964, z: 0}
        outSlope: {x: -0.0023293467, y: -0.11354964, z: 0}
        tangentMode: 0
      - time: 2.75
        value: {x: 0.011308955, y: -0.104801, z: 0}
        inSlope: {x: -0.038730238, y: -0.031132832, z: 0}
        outSlope: {x: -0.038730238, y: -0.031132832, z: 0}
        tangentMode: 0
      - time: 3.35
        value: {x: -0.012315666, y: -0.06581848, z: 0}
        inSlope: {x: -0.00774365, y: 0.123540394, z: 0}
        outSlope: {x: -0.00774365, y: 0.123540394, z: 0}
        tangentMode: 0
      - time: 3.9833333
        value: {x: 0, y: 0, z: 0}
        inSlope: {x: 0.009722893, y: 0.04248689, z: 0}
        outSlope: {x: 0.009722893, y: 0.04248689, z: 0}
        tangentMode: 0
      - time: 4
        value: {x: 0, y: 0, z: 0}
        inSlope: {x: 0, y: 0, z: 0}
        outSlope: {x: 0, y: 0, z: 0}
        tangentMode: 0
      m_PreInfinity: 2
      m_PostInfinity: 2
      m_RotationOrder: 4
    path: 
  m_ScaleCurves:
  - curve:
      serializedVersion: 2
      m_Curve:
      - time: 0
        value: {x: 0.15, y: 0.15, z: 0.15}
        inSlope: {x: 0, y: 0, z: 0}
        outSlope: {x: 0, y: 0, z: 0}
        tangentMode: 0
      - time: 4
        value: {x: 0.15, y: 0.15, z: 0.15}
        inSlope: {x: 0, y: 0, z: 0}
        outSlope: {x: 0, y: 0, z: 0}
        tangentMode: 0
      m_PreInfinity: 2
      m_PostInfinity: 2
      m_RotationOrder: 4
    path: 
  m_FloatCurves:
  - curve:
      serializedVersion: 2
      m_Curve:
      - time: 0
        value: 0.15
        inSlope: 0
        outSlope: 0
        tangentMode: 10
      - time: 4
        value: 0.15
        inSlope: 0
        outSlope: 0
        tangentMode: 10
      m_PreInfinity: 2
      m_PostInfinity: 2
      m_RotationOrder: 4
    attribute: m_StartWidth
    path: 
    classID: 96
    script: {fileID: 0}
  m_PPtrCurves: []
  m_SampleRate: 60
  m_WrapMode: 0
  m_Bounds:
    m_Center: {x: 0, y: 0, z: 0}
    m_Extent: {x: 0, y: 0, z: 0}
  m_ClipBindingConstant:
    genericBindings:
    - path: 0
      attribute: 1
      script: {fileID: 0}
      classID: 4
      customType: 0
      isPPtrCurve: 0
    - path: 0
      attribute: 3
      script: {fileID: 0}
      classID: 4
      customType: 0
      isPPtrCurve: 0
    - path: 0
      attribute: 2784927295
      script: {fileID: 0}
      classID: 96
      customType: 0
      isPPtrCurve: 0
    pptrCurveMapping: []
  m_AnimationClipSettings:
    serializedVersion: 2
    m_AdditiveReferencePoseClip: {fileID: 0}
    m_AdditiveReferencePoseTime: 0
    m_StartTime: 0
    m_StopTime: 4
    m_OrientationOffsetY: 0
    m_Level: 0
    m_CycleOffset: 0
    m_HasAdditiveReferencePose: 0
    m_LoopTime: 1
    m_LoopBlend: 0
    m_LoopBlendOrientation: 0
    m_LoopBlendPositionY: 0
    m_LoopBlendPositionXZ: 0
    m_KeepOriginalOrientation: 0
    m_KeepOriginalPositionY: 1
    m_KeepOriginalPositionXZ: 0
    m_HeightFromFeet: 0
    m_Mirror: 0
  m_EditorCurves:
  - curve:
      serializedVersion: 2
      m_Curve:
      - time: 0
        value: 0
        inSlope: 0.015502959
        outSlope: 0.015502959
        tangentMode: 10
      - time: 1
        value: 0.015502959
        inSlope: -0.01520355
        outSlope: -0.01520355
        tangentMode: 10
      - time: 1.6
        value: -0.012043079
        inSlope: -0.007817834
        outSlope: -0.007817834
        tangentMode: 10
      - time: 2.5333333
        value: 0.016213018
        inSlope: -0.0023293467
        outSlope: -0.0023293467
        tangentMode: 10
      - time: 3.35
        value: -0.012315666
        inSlope: -0.00774365
        outSlope: -0.00774365
        tangentMode: 10
      - time: 3.9833333
        value: 0
        inSlope: 0.009722893
        outSlope: 0.009722893
        tangentMode: 10
      - time: 4
        value: 0
        inSlope: 0
        outSlope: 0
        tangentMode: 10
      m_PreInfinity: 2
      m_PostInfinity: 2
      m_RotationOrder: 4
    attribute: m_LocalPosition.x
    path: 
    classID: 4
    script: {fileID: 0}
  - curve:
      serializedVersion: 2
      m_Curve:
      - time: 0
        value: 0
        inSlope: 0.15286803
        outSlope: 0.15286803
        tangentMode: 10
      - time: 1
        value: 0.15286803
        inSlope: 0.002814293
        outSlope: 0.002814293
        tangentMode: 10
      - time: 2.75
        value: -0.104801
        inSlope: -0.031132832
        outSlope: -0.031132832
        tangentMode: 10
      - time: 3.9833333
        value: 0
        inSlope: 0.04248689
        outSlope: 0.04248689
        tangentMode: 10
      - time: 4
        value: 0
        inSlope: 0
        outSlope: 0
        tangentMode: 10
      m_PreInfinity: 2
      m_PostInfinity: 2
      m_RotationOrder: 4
    attribute: m_LocalPosition.y
    path: 
    classID: 4
    script: {fileID: 0}
  - curve:
      serializedVersion: 2
      m_Curve:
      - time: 0
        value: 0
        inSlope: 0
        outSlope: 0
        tangentMode: 10
      - time: 1
        value: 0
        inSlope: 0
        outSlope: 0
        tangentMode: 10
      - time: 3.9833333
        value: 0
        inSlope: 0
        outSlope: 0
        tangentMode: 10
      m_PreInfinity: 2
      m_PostInfinity: 2
      m_RotationOrder: 4
    attribute: m_LocalPosition.z
    path: 
    classID: 4
    script: {fileID: 0}
  - curve:
      serializedVersion: 2
      m_Curve:
      - time: 0
        value: 0.15
        inSlope: 0
        outSlope: 0
        tangentMode: 10
      - time: 4
        value: 0.15
        inSlope: 0
        outSlope: 0
        tangentMode: 10
      m_PreInfinity: 2
      m_PostInfinity: 2
      m_RotationOrder: 4
    attribute: m_LocalScale.x
    path: 
    classID: 4
    script: {fileID: 0}
  - curve:
      serializedVersion: 2
      m_Curve:
      - time: 0
        value: 0.15
        inSlope: 0
        outSlope: 0
        tangentMode: 10
      - time: 4
        value: 0.15
        inSlope: 0
        outSlope: 0
        tangentMode: 10
      m_PreInfinity: 2
      m_PostInfinity: 2
      m_RotationOrder: 4
    attribute: m_LocalScale.y
    path: 
    classID: 4
    script: {fileID: 0}
  - curve:
      serializedVersion: 2
      m_Curve:
      - time: 0
        value: 0.15
        inSlope: 0
        outSlope: 0
        tangentMode: 10
      - time: 4
        value: 0.15
        inSlope: 0
        outSlope: 0
        tangentMode: 10
      m_PreInfinity: 2
      m_PostInfinity: 2
      m_RotationOrder: 4
    attribute: m_LocalScale.z
    path: 
    classID: 4
    script: {fileID: 0}
  - curve:
      serializedVersion: 2
      m_Curve:
      - time: 0
        value: 0.15
        inSlope: 0
        outSlope: 0
        tangentMode: 10
      - time: 4
        value: 0.15
        inSlope: 0
        outSlope: 0
        tangentMode: 10
      m_PreInfinity: 2
      m_PostInfinity: 2
      m_RotationOrder: 4
    attribute: m_StartWidth
    path: 
    classID: 96
    script: {fileID: 0}
  m_EulerEditorCurves: []
  m_HasGenericRootTransform: 1
  m_HasMotionFloatCurves: 0
  m_GenerateMotionCurves: 0
  m_Events: []
