%YAML 1.1
%TAG !u! tag:unity3d.com,2011:
--- !u!74 &7400000
AnimationClip:
  m_ObjectHideFlags: 0
  m_PrefabParentObject: {fileID: 0}
  m_PrefabInternal: {fileID: 0}
  m_Name: Soul_Idle2
  serializedVersion: 6
  m_Legacy: 0
  m_Compressed: 0
  m_UseHighQualityCurve: 1
  m_RotationCurves: []
  m_CompressedRotationCurves: []
  m_EulerCurves: []
  m_PositionCurves:
  - curve:
      serializedVersion: 2
      m_Curve:
      - time: 0
        value: {x: 0, y: 0, z: 0}
        inSlope: {x: 0.3465815, y: 0.3598805, z: -0.008845679}
        outSlope: {x: 0.3465815, y: 0.3598805, z: -0.008845679}
        tangentMode: 0
      - time: 0.8333333
        value: {x: 0.30606404, y: 0.2999004, z: -0.0056458535}
        inSlope: {x: -0.12941208, y: 0.35240388, z: -0.015057646}
        outSlope: {x: -0.12941208, y: 0.35240388, z: -0.015057646}
        tangentMode: 0
      - time: 0.8666667
        value: {x: 0.30037063, y: 0.31254897, z: -0.0061731767}
        inSlope: {x: -0.21302168, y: 0.40446472, z: -0.016598213}
        outSlope: {x: -0.21302168, y: 0.40446472, z: -0.016598213}
        tangentMode: 0
      - time: 1
        value: {x: 0.20959446, y: 0.37437057, z: -0.008845679}
        inSlope: {x: -0.9606229, y: 0.4901876, z: -0.023754396}
        outSlope: {x: -0.9606229, y: 0.4901876, z: -0.023754396}
        tangentMode: 0
      - time: 1.1333333
        value: {x: 0.09433736, y: 0.43455312, z: -0.012988526}
        inSlope: {x: -0.58023566, y: 0.37987867, z: -0.037568446}
        outSlope: {x: -0.58023566, y: 0.37987867, z: -0.037568446}
        tangentMode: 0
      - time: 1.3166667
        value: {x: -0.011784924, y: 0.4666153, z: -0.021023035}
        inSlope: {x: -0.574726, y: -0.09188022, z: -0.048530642}
        outSlope: {x: -0.574726, y: -0.09188022, z: -0.048530642}
        tangentMode: 0
      - time: 2
        value: {x: -0.36107776, y: 0.020544145, z: -0.04750879}
        inSlope: {x: -0.4095908, y: -0.49065366, z: -0.007454358}
        outSlope: {x: -0.4095908, y: -0.49065366, z: -0.007454358}
        tangentMode: 0
      - time: 2.2166667
        value: {x: -0.43940604, y: -0.009203643, z: -0.047738187}
        inSlope: {x: -0.3096188, y: 0.28875, z: 0.0049706283}
        outSlope: {x: -0.3096188, y: 0.28875, z: 0.0049706283}
        tangentMode: 0
      - time: 2.7166667
        value: {x: -0.519753, y: 0.6190883, z: -0.039693806}
        inSlope: {x: 0.008577913, y: 1.2161211, z: 0.02525632}
        outSlope: {x: 0.008577913, y: 1.2161211, z: 0.02525632}
        tangentMode: 0
      - time: 2.9
        value: {x: -0.49889845, y: 0.74669135, z: -0.034626417}
        inSlope: {x: 0.21083534, y: 0.04035163, z: 0.02976208}
        outSlope: {x: 0.21083534, y: 0.04035163, z: 0.02976208}
        tangentMode: 0
      - time: 3.6
        value: {x: -0.19602032, y: 0.028852403, z: -0.011499118}
        inSlope: {x: 0.5365865, y: -0.54880774, z: 0.032492846}
        outSlope: {x: 0.5365865, y: -0.54880774, z: 0.032492846}
        tangentMode: 0
      - time: 4
        value: {x: 0, y: 0, z: 0}
        inSlope: {x: 0.40500233, y: -0.07213099, z: 0.023754396}
        outSlope: {x: 0.40500233, y: -0.07213099, z: 0.023754396}
        tangentMode: 0
      m_PreInfinity: 2
      m_PostInfinity: 2
      m_RotationOrder: 4
    path: 
  m_ScaleCurves: []
  m_FloatCurves: []
  m_PPtrCurves: []
  m_SampleRate: 60
  m_WrapMode: 0
  m_Bounds:
    m_Center: {x: 0, y: 0, z: 0}
    m_Extent: {x: 0, y: 0, z: 0}
  m_ClipBindingConstant:
    genericBindings:
    - path: 0
      attribute: 1
      script: {fileID: 0}
      classID: 4
      customType: 0
      isPPtrCurve: 0
    pptrCurveMapping: []
  m_AnimationClipSettings:
    serializedVersion: 2
    m_AdditiveReferencePoseClip: {fileID: 0}
    m_AdditiveReferencePoseTime: 0
    m_StartTime: 0
    m_StopTime: 4
    m_OrientationOffsetY: 0
    m_Level: 0
    m_CycleOffset: 0
    m_HasAdditiveReferencePose: 0
    m_LoopTime: 1
    m_LoopBlend: 0
    m_LoopBlendOrientation: 0
    m_LoopBlendPositionY: 0
    m_LoopBlendPositionXZ: 0
    m_KeepOriginalOrientation: 0
    m_KeepOriginalPositionY: 1
    m_KeepOriginalPositionXZ: 0
    m_HeightFromFeet: 0
    m_Mirror: 0
  m_EditorCurves:
  - curve:
      serializedVersion: 2
      m_Curve:
      - time: 0
        value: 0
        inSlope: 0.3465815
        outSlope: 0.3465815
        tangentMode: 10
      - time: 0.8666667
        value: 0.30037063
        inSlope: -0.21302168
        outSlope: -0.21302168
        tangentMode: 10
      - time: 1.1333333
        value: 0.09433736
        inSlope: -0.58023566
        outSlope: -0.58023566
        tangentMode: 10
      - time: 2.7166667
        value: -0.519753
        inSlope: 0.008577913
        outSlope: 0.008577913
        tangentMode: 10
      - time: 4
        value: 0
        inSlope: 0.40500233
        outSlope: 0.40500233
        tangentMode: 10
      m_PreInfinity: 2
      m_PostInfinity: 2
      m_RotationOrder: 4
    attribute: m_LocalPosition.x
    path: 
    classID: 4
    script: {fileID: 0}
  - curve:
      serializedVersion: 2
      m_Curve:
      - time: 0
        value: 0
        inSlope: 0.3598805
        outSlope: 0.3598805
        tangentMode: 10
      - time: 0.8333333
        value: 0.2999004
        inSlope: 0.35240388
        outSlope: 0.35240388
        tangentMode: 10
      - time: 1.3166667
        value: 0.4666153
        inSlope: -0.09188022
        outSlope: -0.09188022
        tangentMode: 10
      - time: 2.2166667
        value: -0.009203643
        inSlope: 0.28875
        outSlope: 0.28875
        tangentMode: 10
      - time: 2.9
        value: 0.74669135
        inSlope: 0.04035163
        outSlope: 0.04035163
        tangentMode: 10
      - time: 3.6
        value: 0.028852403
        inSlope: -0.54880774
        outSlope: -0.54880774
        tangentMode: 10
      - time: 4
        value: 0
        inSlope: -0.07213099
        outSlope: -0.07213099
        tangentMode: 10
      m_PreInfinity: 2
      m_PostInfinity: 2
      m_RotationOrder: 4
    attribute: m_LocalPosition.y
    path: 
    classID: 4
    script: {fileID: 0}
  - curve:
      serializedVersion: 2
      m_Curve:
      - time: 0
        value: 0
        inSlope: -0.008845679
        outSlope: -0.008845679
        tangentMode: 10
      - time: 1
        value: -0.008845679
        inSlope: -0.023754396
        outSlope: -0.023754396
        tangentMode: 10
      - time: 2
        value: -0.04750879
        inSlope: -0.007454358
        outSlope: -0.007454358
        tangentMode: 10
      - time: 4
        value: 0
        inSlope: 0.023754396
        outSlope: 0.023754396
        tangentMode: 10
      m_PreInfinity: 2
      m_PostInfinity: 2
      m_RotationOrder: 4
    attribute: m_LocalPosition.z
    path: 
    classID: 4
    script: {fileID: 0}
  m_EulerEditorCurves: []
  m_HasGenericRootTransform: 1
  m_HasMotionFloatCurves: 0
  m_GenerateMotionCurves: 0
  m_Events: []
